<?xml version="1.0" encoding="UTF-8"?>
<gexf xmlns="http://www.gexf.net/1.3" version="1.3" xmlns:viz="http://www.gexf.net/1.3/viz" xmlns:xsi="http://www.w3.org/2001/XMLSchema-instance" xsi:schemaLocation="http://www.gexf.net/1.3 http://www.gexf.net/1.3/gexf.xsd">
  <meta lastmodifieddate="2016-07-08">
    <creator>Gephi 0.9</creator>
    <description></description>
  </meta>
  <graph defaultedgetype="directed" mode="static">
    <nodes>
      <node id="0" label="Node0">
        <viz:size value="10.0"></viz:size>
        <viz:position x="-294.57407" y="300.54153"></viz:position>
        <viz:color r="153" g="153" b="153"></viz:color>
      </node>
      <node id="1" label="Node1">
        <viz:size value="10.0"></viz:size>
        <viz:position x="342.42365" y="-58.31403"></viz:position>
        <viz:color r="153" g="153" b="153"></viz:color>
      </node>
      <node id="2" label="Node2">
        <viz:size value="10.0"></viz:size>
        <viz:position x="-482.98184" y="-252.69414"></viz:position>
        <viz:color r="153" g="153" b="153"></viz:color>
      </node>
      <node id="3" label="Node3">
        <viz:size value="10.0"></viz:size>
        <viz:position x="183.92188" y="291.57016"></viz:position>
        <viz:color r="153" g="153" b="153"></viz:color>
      </node>
    </nodes>
    <edges>
      <edge id="0" source="2" target="1"></edge>
      <edge id="1" source="1" target="3"></edge>
      <edge id="2" source="3" target="0"></edge>
      <edge id="3" source="0" target="2"></edge>
    </edges>
  </graph>
</gexf>
